﻿<?xml version="1.0" encoding="UTF-8"?>
<TestRun id="b3bc840b-c066-4d7c-8fb9-aa08ab89cb86" name="tmoreno@JOVANNA-ZBOOK 2017-12-13 14:16:10" runUser="AD\tmoreno" xmlns="http://microsoft.com/schemas/VisualStudio/TeamTest/2010">
  <TestSettings name="Default Test Settings" id="2d34939f-3a26-4b39-8ec3-44c15f0b57e6">
    <Execution>
      <TestTypeSpecific />
      <AgentRule name="Execution Agents">
      </AgentRule>
    </Execution>
    <Deployment runDeploymentRoot="tmoreno_JOVANNA-ZBOOK 2017-12-13 14_16_10" />
    <Properties />
  </TestSettings>
  <Times creation="2017-12-13T14:16:10.9747315-08:00" queuing="2017-12-13T14:16:11.8153251-08:00" start="2017-12-13T14:16:11.9193986-08:00" finish="2017-12-13T14:16:13.1812891-08:00" />
  <ResultSummary outcome="Warning">
    <Counters total="1" executed="1" passed="1" error="0" failed="0" timeout="0" aborted="0" inconclusive="0" passedButRunAborted="0" notRunnable="0" notExecuted="0" disconnected="0" warning="0" completed="0" inProgress="0" pending="0" />
    <RunInfos>
      <RunInfo computerName="JOVANNA-ZBOOK" outcome="Warning" timestamp="2017-12-13T14:16:11.5051056-08:00">
        <Text>Warning: Test Run deployment issue: The assembly or module 'WebGrease' directly or indirectly referenced by the test container 'C:\Users\tmoreno\Documents\Visual Studio 2017\Projects\MVCTut\Ashore HAMS.Tests\bin\Debug\ashore hams.tests.dll' was not found.</Text>
      </RunInfo>
    </RunInfos>
  </ResultSummary>
  <TestDefinitions>
    <UnitTest name="TestGetAuthHullAppReleaseApiByJobID" storage="ashore hams.tests.dll" id="ebbcf5fe-c057-51d6-a7b3-917422fe37c8">
      <Execution id="6006de54-7039-4130-a6db-4704020b18c4" />
      <TestMethod codeBase="C:/Users/tmoreno/Documents/Visual Studio 2017/Projects/MVCTut/Ashore HAMS.Tests/bin/Debug/Ashore HAMS.Tests.dll" adapterTypeName="Microsoft.VisualStudio.TestTools.TestTypes.Unit.UnitTestAdapter, Microsoft.VisualStudio.QualityTools.Tips.UnitTest.Adapter, Version=15.0.0.0, Culture=neutral, PublicKeyToken=b03f5f7f11d50a3a" className="Ashore_HAMS.Tests.Controllers.UnitTest2, Ashore HAMS.Tests, Version=1.0.0.0, Culture=neutral, PublicKeyToken=null" name="TestGetAuthHullAppReleaseApiByJobID" />
    </UnitTest>
  </TestDefinitions>
  <TestLists>
    <TestList name="Results Not in a List" id="8c84fa94-04c1-424b-9868-57a2d4851a1d" />
    <TestList name="All Loaded Results" id="19431567-8539-422a-85d7-44ee4e166bda" />
  </TestLists>
  <TestEntries>
    <TestEntry testId="ebbcf5fe-c057-51d6-a7b3-917422fe37c8" executionId="6006de54-7039-4130-a6db-4704020b18c4" testListId="8c84fa94-04c1-424b-9868-57a2d4851a1d" />
  </TestEntries>
  <Results>
    <UnitTestResult executionId="6006de54-7039-4130-a6db-4704020b18c4" testId="ebbcf5fe-c057-51d6-a7b3-917422fe37c8" testName="TestGetAuthHullAppReleaseApiByJobID" computerName="JOVANNA-ZBOOK" duration="00:00:00.1819457" startTime="2017-12-13T14:16:12.0504913-08:00" endTime="2017-12-13T14:16:13.1212475-08:00" testType="13cdc9d9-ddb5-4fa4-a97d-d965ccfc6d4b" outcome="Passed" testListId="8c84fa94-04c1-424b-9868-57a2d4851a1d" relativeResultsDirectory="6006de54-7039-4130-a6db-4704020b18c4">
      <Output>
        <DebugTrace>[{"AUTH_HULL_APP_RELEASE_ID":1,"HULL_SERVER_ID":1,"AUTH_APP_RELEASE_ID":1,"HULL_APP_RELEASE_DATE":"2015-05-01T00:00:00","TIME_DATE_RECORD":"AAAAAAAARlQ="},{"AUTH_HULL_APP_RELEASE_ID":2,"HULL_SERVER_ID":2,"AUTH_APP_RELEASE_ID":2,"HULL_APP_RELEASE_DATE":"0001-01-01T00:00:00","TIME_DATE_RECORD":"AAAAAAAAZZE="},{"AUTH_HULL_APP_RELEASE_ID":5,"HULL_SERVER_ID":2,"AUTH_APP_RELEASE_ID":5,"HULL_APP_RELEASE_DATE":"0001-01-01T00:00:00","TIME_DATE_RECORD":"AAAAAAAAZZI="},{"AUTH_HULL_APP_RELEASE_ID":2002,"HULL_SERVER_ID":1,"AUTH_APP_RELEASE_ID":2002,"HULL_APP_RELEASE_DATE":"0001-01-01T00:00:00","TIME_DATE_RECORD":"AAAAAAAAZZQ="},{"AUTH_HULL_APP_RELEASE_ID":3002,"HULL_SERVER_ID":1,"AUTH_APP_RELEASE_ID":3002,"HULL_APP_RELEASE_DATE":"0001-01-01T00:00:00","TIME_DATE_RECORD":"AAAAAAAAhNI="}]
</DebugTrace>
      </Output>
    </UnitTestResult>
  </Results>
</TestRun>