﻿<?xml version="1.0" encoding="UTF-8"?>
<TestRun id="ba447e09-19ff-4ad7-b4b1-08c8c309d731" name="tmoreno@JOVANNA-ZBOOK 2017-12-13 13:22:48" runUser="AD\tmoreno" xmlns="http://microsoft.com/schemas/VisualStudio/TeamTest/2010">
  <TestSettings name="Default Test Settings" id="bc660c72-a9fe-440c-aaa0-dad536f03e05">
    <Execution>
      <TestTypeSpecific />
      <AgentRule name="Execution Agents">
      </AgentRule>
    </Execution>
    <Deployment runDeploymentRoot="tmoreno_JOVANNA-ZBOOK 2017-12-13 13_22_48" />
    <Properties />
  </TestSettings>
  <Times creation="2017-12-13T13:22:48.8298501-08:00" queuing="2017-12-13T13:22:49.6834530-08:00" start="2017-12-13T13:22:49.7915358-08:00" finish="2017-12-13T13:22:51.2895867-08:00" />
  <ResultSummary outcome="Warning">
    <Counters total="4" executed="4" passed="4" error="0" failed="0" timeout="0" aborted="0" inconclusive="0" passedButRunAborted="0" notRunnable="0" notExecuted="0" disconnected="0" warning="0" completed="0" inProgress="0" pending="0" />
    <RunInfos>
      <RunInfo computerName="JOVANNA-ZBOOK" outcome="Warning" timestamp="2017-12-13T13:22:49.3742353-08:00">
        <Text>Warning: Test Run deployment issue: The assembly or module 'WebGrease' directly or indirectly referenced by the test container 'C:\Users\tmoreno\Documents\Visual Studio 2017\Projects\MVCTut\Ashore HAMS.Tests\bin\Debug\ashore hams.tests.dll' was not found.</Text>
      </RunInfo>
    </RunInfos>
  </ResultSummary>
  <TestDefinitions>
    <UnitTest name="About" storage="ashore hams.tests.dll" id="87244547-884e-7dec-50a6-4c9c9739112f">
      <Execution id="6818e127-ae42-47b5-bc3f-33930705e005" />
      <TestMethod codeBase="C:/Users/tmoreno/Documents/Visual Studio 2017/Projects/MVCTut/Ashore HAMS.Tests/bin/Debug/Ashore HAMS.Tests.dll" adapterTypeName="Microsoft.VisualStudio.TestTools.TestTypes.Unit.UnitTestAdapter, Microsoft.VisualStudio.QualityTools.Tips.UnitTest.Adapter, Version=15.0.0.0, Culture=neutral, PublicKeyToken=b03f5f7f11d50a3a" className="Ashore_HAMS.Tests.Controllers.HomeControllerTest, Ashore HAMS.Tests, Version=1.0.0.0, Culture=neutral, PublicKeyToken=null" name="About" />
    </UnitTest>
    <UnitTest name="TestAuthHullAppReleaseApi" storage="ashore hams.tests.dll" id="daf1f34c-4f38-b7ac-fe31-ac21491ce4c8">
      <Execution id="cc1ac7cc-5c5c-4d30-ada5-f71a60e156ed" />
      <TestMethod codeBase="C:/Users/tmoreno/Documents/Visual Studio 2017/Projects/MVCTut/Ashore HAMS.Tests/bin/Debug/Ashore HAMS.Tests.dll" adapterTypeName="Microsoft.VisualStudio.TestTools.TestTypes.Unit.UnitTestAdapter, Microsoft.VisualStudio.QualityTools.Tips.UnitTest.Adapter, Version=15.0.0.0, Culture=neutral, PublicKeyToken=b03f5f7f11d50a3a" className="Ashore_HAMS.Tests.Controllers.UnitTest2, Ashore HAMS.Tests, Version=1.0.0.0, Culture=neutral, PublicKeyToken=null" name="TestAuthHullAppReleaseApi" />
    </UnitTest>
    <UnitTest name="Index" storage="ashore hams.tests.dll" id="f3e5be3d-f766-338a-c9e4-a75797e17467">
      <Execution id="b39d8da9-2248-4d25-ac0a-ce4037ac92e0" />
      <TestMethod codeBase="C:/Users/tmoreno/Documents/Visual Studio 2017/Projects/MVCTut/Ashore HAMS.Tests/bin/Debug/Ashore HAMS.Tests.dll" adapterTypeName="Microsoft.VisualStudio.TestTools.TestTypes.Unit.UnitTestAdapter, Microsoft.VisualStudio.QualityTools.Tips.UnitTest.Adapter, Version=15.0.0.0, Culture=neutral, PublicKeyToken=b03f5f7f11d50a3a" className="Ashore_HAMS.Tests.Controllers.HomeControllerTest, Ashore HAMS.Tests, Version=1.0.0.0, Culture=neutral, PublicKeyToken=null" name="Index" />
    </UnitTest>
    <UnitTest name="Contact" storage="ashore hams.tests.dll" id="3bc0fb12-2c82-ff23-cac5-f1ed4a0d2589">
      <Execution id="875605dc-5dd6-48cb-a9a9-aefe350233d2" />
      <TestMethod codeBase="C:/Users/tmoreno/Documents/Visual Studio 2017/Projects/MVCTut/Ashore HAMS.Tests/bin/Debug/Ashore HAMS.Tests.dll" adapterTypeName="Microsoft.VisualStudio.TestTools.TestTypes.Unit.UnitTestAdapter, Microsoft.VisualStudio.QualityTools.Tips.UnitTest.Adapter, Version=15.0.0.0, Culture=neutral, PublicKeyToken=b03f5f7f11d50a3a" className="Ashore_HAMS.Tests.Controllers.HomeControllerTest, Ashore HAMS.Tests, Version=1.0.0.0, Culture=neutral, PublicKeyToken=null" name="Contact" />
    </UnitTest>
  </TestDefinitions>
  <TestLists>
    <TestList name="Results Not in a List" id="8c84fa94-04c1-424b-9868-57a2d4851a1d" />
    <TestList name="All Loaded Results" id="19431567-8539-422a-85d7-44ee4e166bda" />
  </TestLists>
  <TestEntries>
    <TestEntry testId="87244547-884e-7dec-50a6-4c9c9739112f" executionId="6818e127-ae42-47b5-bc3f-33930705e005" testListId="8c84fa94-04c1-424b-9868-57a2d4851a1d" />
    <TestEntry testId="3bc0fb12-2c82-ff23-cac5-f1ed4a0d2589" executionId="875605dc-5dd6-48cb-a9a9-aefe350233d2" testListId="8c84fa94-04c1-424b-9868-57a2d4851a1d" />
    <TestEntry testId="f3e5be3d-f766-338a-c9e4-a75797e17467" executionId="b39d8da9-2248-4d25-ac0a-ce4037ac92e0" testListId="8c84fa94-04c1-424b-9868-57a2d4851a1d" />
    <TestEntry testId="daf1f34c-4f38-b7ac-fe31-ac21491ce4c8" executionId="cc1ac7cc-5c5c-4d30-ada5-f71a60e156ed" testListId="8c84fa94-04c1-424b-9868-57a2d4851a1d" />
  </TestEntries>
  <Results>
    <UnitTestResult executionId="6818e127-ae42-47b5-bc3f-33930705e005" testId="87244547-884e-7dec-50a6-4c9c9739112f" testName="About" computerName="JOVANNA-ZBOOK" duration="00:00:00.1774324" startTime="2017-12-13T13:22:49.9326288-08:00" endTime="2017-12-13T13:22:50.9963806-08:00" testType="13cdc9d9-ddb5-4fa4-a97d-d965ccfc6d4b" outcome="Passed" testListId="8c84fa94-04c1-424b-9868-57a2d4851a1d" relativeResultsDirectory="6818e127-ae42-47b5-bc3f-33930705e005">
    </UnitTestResult>
    <UnitTestResult executionId="875605dc-5dd6-48cb-a9a9-aefe350233d2" testId="3bc0fb12-2c82-ff23-cac5-f1ed4a0d2589" testName="Contact" computerName="JOVANNA-ZBOOK" duration="00:00:00.0018835" startTime="2017-12-13T13:22:50.9983816-08:00" endTime="2017-12-13T13:22:51.0033850-08:00" testType="13cdc9d9-ddb5-4fa4-a97d-d965ccfc6d4b" outcome="Passed" testListId="8c84fa94-04c1-424b-9868-57a2d4851a1d" relativeResultsDirectory="875605dc-5dd6-48cb-a9a9-aefe350233d2">
    </UnitTestResult>
    <UnitTestResult executionId="b39d8da9-2248-4d25-ac0a-ce4037ac92e0" testId="f3e5be3d-f766-338a-c9e4-a75797e17467" testName="Index" computerName="JOVANNA-ZBOOK" duration="00:00:00.0002683" startTime="2017-12-13T13:22:51.0053864-08:00" endTime="2017-12-13T13:22:51.0083887-08:00" testType="13cdc9d9-ddb5-4fa4-a97d-d965ccfc6d4b" outcome="Passed" testListId="8c84fa94-04c1-424b-9868-57a2d4851a1d" relativeResultsDirectory="b39d8da9-2248-4d25-ac0a-ce4037ac92e0">
    </UnitTestResult>
    <UnitTestResult executionId="cc1ac7cc-5c5c-4d30-ada5-f71a60e156ed" testId="daf1f34c-4f38-b7ac-fe31-ac21491ce4c8" testName="TestAuthHullAppReleaseApi" computerName="JOVANNA-ZBOOK" duration="00:00:00.2241453" startTime="2017-12-13T13:22:51.0103905-08:00" endTime="2017-12-13T13:22:51.2375507-08:00" testType="13cdc9d9-ddb5-4fa4-a97d-d965ccfc6d4b" outcome="Passed" testListId="8c84fa94-04c1-424b-9868-57a2d4851a1d" relativeResultsDirectory="cc1ac7cc-5c5c-4d30-ada5-f71a60e156ed">
      <Output>
        <StdOut>this is not ok</StdOut>
        <DebugTrace>StatusCode: 200, ReasonPhrase: 'OK', Version: 1.1, Content: System.Net.Http.StreamContent, Headers:
{
  Pragma: no-cache
  X-SourceFiles: =?UTF-8?B?QzpcVXNlcnNcdG1vcmVub1xEb2N1bWVudHNcVmlzdWFsIFN0dWRpbyAyMDE3XFByb2plY3RzXE1WQ1R1dFxBc2hvcmUgSEFNU1xhcGlcQVVUSF9IVUxMX0FQUF9SRUxFQVNF?=
  Cache-Control: no-cache
  Date: Wed, 13 Dec 2017 21:22:51 GMT
  Server: Microsoft-IIS/10.0
  X-AspNet-Version: 4.0.30319
  X-Powered-By: ASP.NET
  Content-Length: 6
  Content-Type: application/json; charset=utf-8
  Expires: -1
}
</DebugTrace>
      </Output>
    </UnitTestResult>
  </Results>
</TestRun>