﻿<?xml version="1.0" encoding="UTF-8"?>
<TestRun id="28c4736f-63d0-4602-b6a8-d32d3cf43f60" name="tmoreno@JOVANNA-ZBOOK 2017-12-13 14:20:50" runUser="AD\tmoreno" xmlns="http://microsoft.com/schemas/VisualStudio/TeamTest/2010">
  <TestSettings name="Default Test Settings" id="aec72c20-04bd-49ef-9102-d6641b6a78b2">
    <Execution>
      <TestTypeSpecific />
      <AgentRule name="Execution Agents">
      </AgentRule>
    </Execution>
    <Deployment runDeploymentRoot="tmoreno_JOVANNA-ZBOOK 2017-12-13 14_20_50" />
    <Properties />
  </TestSettings>
  <Times creation="2017-12-13T14:20:50.2749686-08:00" queuing="2017-12-13T14:20:51.0562257-08:00" start="2017-12-13T14:20:51.1499766-08:00" finish="2017-12-13T14:21:07.0647213-08:00" />
  <ResultSummary outcome="Warning">
    <Counters total="1" executed="1" passed="1" error="0" failed="0" timeout="0" aborted="0" inconclusive="0" passedButRunAborted="0" notRunnable="0" notExecuted="0" disconnected="0" warning="0" completed="0" inProgress="0" pending="0" />
    <RunInfos>
      <RunInfo computerName="JOVANNA-ZBOOK" outcome="Warning" timestamp="2017-12-13T14:20:50.8218486-08:00">
        <Text>Warning: Test Run deployment issue: The assembly or module 'WebGrease' directly or indirectly referenced by the test container 'C:\Users\tmoreno\Documents\Visual Studio 2017\Projects\MVCTut\Ashore HAMS.Tests\bin\Debug\ashore hams.tests.dll' was not found.</Text>
      </RunInfo>
    </RunInfos>
  </ResultSummary>
  <TestDefinitions>
    <UnitTest name="TestGetAuthHullAppReleaseApiByJobID" storage="ashore hams.tests.dll" id="ebbcf5fe-c057-51d6-a7b3-917422fe37c8">
      <Execution id="236f7e74-5a40-4a84-90df-234275d38aea" />
      <TestMethod codeBase="C:/Users/tmoreno/Documents/Visual Studio 2017/Projects/MVCTut/Ashore HAMS.Tests/bin/Debug/Ashore HAMS.Tests.dll" adapterTypeName="Microsoft.VisualStudio.TestTools.TestTypes.Unit.UnitTestAdapter, Microsoft.VisualStudio.QualityTools.Tips.UnitTest.Adapter, Version=15.0.0.0, Culture=neutral, PublicKeyToken=b03f5f7f11d50a3a" className="Ashore_HAMS.Tests.Controllers.UnitTest2, Ashore HAMS.Tests, Version=1.0.0.0, Culture=neutral, PublicKeyToken=null" name="TestGetAuthHullAppReleaseApiByJobID" />
    </UnitTest>
  </TestDefinitions>
  <TestLists>
    <TestList name="Results Not in a List" id="8c84fa94-04c1-424b-9868-57a2d4851a1d" />
    <TestList name="All Loaded Results" id="19431567-8539-422a-85d7-44ee4e166bda" />
  </TestLists>
  <TestEntries>
    <TestEntry testId="ebbcf5fe-c057-51d6-a7b3-917422fe37c8" executionId="236f7e74-5a40-4a84-90df-234275d38aea" testListId="8c84fa94-04c1-424b-9868-57a2d4851a1d" />
  </TestEntries>
  <Results>
    <UnitTestResult executionId="236f7e74-5a40-4a84-90df-234275d38aea" testId="ebbcf5fe-c057-51d6-a7b3-917422fe37c8" testName="TestGetAuthHullAppReleaseApiByJobID" computerName="JOVANNA-ZBOOK" duration="00:00:14.8883781" startTime="2017-12-13T14:20:51.2906024-08:00" endTime="2017-12-13T14:21:06.9709708-08:00" testType="13cdc9d9-ddb5-4fa4-a97d-d965ccfc6d4b" outcome="Passed" testListId="8c84fa94-04c1-424b-9868-57a2d4851a1d" relativeResultsDirectory="236f7e74-5a40-4a84-90df-234275d38aea">
      <Output>
        <DebugTrace>[{"AUTH_HULL_APP_RELEASE_ID":1,"HULL_SERVER_ID":1,"AUTH_APP_RELEASE_ID":1,"HULL_APP_RELEASE_DATE":"2015-05-01T00:00:00","TIME_DATE_RECORD":"AAAAAAAARlQ="},{"AUTH_HULL_APP_RELEASE_ID":2,"HULL_SERVER_ID":2,"AUTH_APP_RELEASE_ID":2,"HULL_APP_RELEASE_DATE":"0001-01-01T00:00:00","TIME_DATE_RECORD":"AAAAAAAAZZE="},{"AUTH_HULL_APP_RELEASE_ID":5,"HULL_SERVER_ID":2,"AUTH_APP_RELEASE_ID":5,"HULL_APP_RELEASE_DATE":"0001-01-01T00:00:00","TIME_DATE_RECORD":"AAAAAAAAZZI="},{"AUTH_HULL_APP_RELEASE_ID":2002,"HULL_SERVER_ID":1,"AUTH_APP_RELEASE_ID":2002,"HULL_APP_RELEASE_DATE":"0001-01-01T00:00:00","TIME_DATE_RECORD":"AAAAAAAAZZQ="},{"AUTH_HULL_APP_RELEASE_ID":3002,"HULL_SERVER_ID":1,"AUTH_APP_RELEASE_ID":3002,"HULL_APP_RELEASE_DATE":"0001-01-01T00:00:00","TIME_DATE_RECORD":"AAAAAAAAhNI="}]
</DebugTrace>
      </Output>
    </UnitTestResult>
  </Results>
</TestRun>