﻿<?xml version="1.0" encoding="UTF-8"?>
<TestRun id="f8348d23-8a37-4aba-9532-fc78fd8f8a3f" name="tmoreno@JOVANNA-ZBOOK 2017-12-14 12:58:58" runUser="AD\tmoreno" xmlns="http://microsoft.com/schemas/VisualStudio/TeamTest/2010">
  <TestSettings name="Default Test Settings" id="82a1371a-124d-488b-bfe3-81332dde7bb8">
    <Execution>
      <TestTypeSpecific />
      <AgentRule name="Execution Agents">
      </AgentRule>
    </Execution>
    <Deployment runDeploymentRoot="tmoreno_JOVANNA-ZBOOK 2017-12-14 12_58_58" />
    <Properties />
  </TestSettings>
  <Times creation="2017-12-14T12:58:58.3233252-08:00" queuing="2017-12-14T12:58:58.8296832-08:00" start="2017-12-14T12:58:58.8897260-08:00" finish="2017-12-14T12:59:10.4318763-08:00" />
  <ResultSummary outcome="Warning">
    <Counters total="1" executed="1" passed="1" error="0" failed="0" timeout="0" aborted="0" inconclusive="0" passedButRunAborted="0" notRunnable="0" notExecuted="0" disconnected="0" warning="0" completed="0" inProgress="0" pending="0" />
    <RunInfos>
      <RunInfo computerName="JOVANNA-ZBOOK" outcome="Warning" timestamp="2017-12-14T12:58:58.6775761-08:00">
        <Text>Warning: Test Run deployment issue: The assembly or module 'WebGrease' directly or indirectly referenced by the test container 'C:\Users\tmoreno\Documents\Visual Studio 2017\Projects\MVCTut\Ashore HAMS.Tests\bin\debug\ashore hams.tests.dll' was not found.</Text>
      </RunInfo>
    </RunInfos>
  </ResultSummary>
  <TestDefinitions>
    <UnitTest name="TestPostAuthHullAppReleaseApi" storage="./bin/debug/ashore hams.tests.dll" id="21b4900a-47c6-d022-40a9-f65878162cf6">
      <Execution id="060d4033-d411-4cba-b1db-7a1fc08c700d" />
      <TestMethod codeBase="C:/Users/tmoreno/Documents/Visual Studio 2017/Projects/MVCTut/Ashore HAMS.Tests/bin/Debug/Ashore HAMS.Tests.DLL" adapterTypeName="Microsoft.VisualStudio.TestTools.TestTypes.Unit.UnitTestAdapter, Microsoft.VisualStudio.QualityTools.Tips.UnitTest.Adapter, Version=15.0.0.0, Culture=neutral, PublicKeyToken=b03f5f7f11d50a3a" className="Ashore_HAMS.Tests.Controllers.UnitTest2, Ashore HAMS.Tests, Version=1.0.0.0, Culture=neutral, PublicKeyToken=null" name="TestPostAuthHullAppReleaseApi" />
    </UnitTest>
  </TestDefinitions>
  <TestLists>
    <TestList name="Results Not in a List" id="8c84fa94-04c1-424b-9868-57a2d4851a1d" />
    <TestList name="All Loaded Results" id="19431567-8539-422a-85d7-44ee4e166bda" />
  </TestLists>
  <TestEntries>
    <TestEntry testId="21b4900a-47c6-d022-40a9-f65878162cf6" executionId="060d4033-d411-4cba-b1db-7a1fc08c700d" testListId="8c84fa94-04c1-424b-9868-57a2d4851a1d" />
  </TestEntries>
  <Results>
    <UnitTestResult executionId="060d4033-d411-4cba-b1db-7a1fc08c700d" testId="21b4900a-47c6-d022-40a9-f65878162cf6" testName="TestPostAuthHullAppReleaseApi" computerName="JOVANNA-ZBOOK" duration="00:00:10.9626562" startTime="2017-12-14T12:58:58.9677986-08:00" endTime="2017-12-14T12:59:10.3878456-08:00" testType="13cdc9d9-ddb5-4fa4-a97d-d965ccfc6d4b" outcome="Passed" testListId="8c84fa94-04c1-424b-9868-57a2d4851a1d" relativeResultsDirectory="060d4033-d411-4cba-b1db-7a1fc08c700d">
      <Output>
        <DebugTrace>{"MSG":{"AUTH_APP_RELEASE_ID":3004}}
</DebugTrace>
      </Output>
    </UnitTestResult>
  </Results>
</TestRun>